…
```
## Swapping out a random 50% of foods: ONIONS, LUXURY LOAF, LAMB, CRAYFISH, BROADBEANS, SALMON, RAVIOLI, SPICES, BEANS
```

```
## Swap candidate not good enough; reswapping.
```

```
## Replacing with: CEREALS RTE, CHICKEN, SOUP, INF FORMULA, Frankfurter, GAME MEAT, BEEF, CHEESECAKE COMMLY PREP, BEEF
```

```
## # A tibble: 27 x 30
##     shorter_desc solution_amounts GmWt_1 serving_gmwt  cost Lipid_Tot_g
##            <chr>            <dbl>  <dbl>        <dbl> <dbl>       <dbl>
##  1          LAMB                1  85.00        85.00  6.35       20.94
##  2       CANDIES                1  40.00        40.00  2.24       34.50
##  3        SALMON                1  85.00        85.00  9.02        7.31
##  4    BROADBEANS                1 109.00       109.00  3.93        0.60
##  5 GELATIN DSSRT                1  85.00        85.00  1.96        0.00
##  6      CRAYFISH                1  85.00        85.00  7.81        0.95
##  7      CRACKERS                1  14.00        14.00  4.19       10.71
##  8        CHEESE                1  28.35        28.35  7.25       30.64
##  9        SPICES                1   0.70         0.70  9.03        4.07
## 10       RAVIOLI                1 242.00       242.00  7.63        1.45
## # ... with 17 more rows, and 24 more variables: Sodium_mg <dbl>,
## #   Cholestrl_mg <dbl>, FA_Sat_g <dbl>, Protein_g <dbl>, Calcium_mg <dbl>,
## #   Iron_mg <dbl>, Magnesium_mg <dbl>, Phosphorus_mg <dbl>,
## #   Potassium_mg <dbl>, Zinc_mg <dbl>, Copper_mg <dbl>,
## #   Manganese_mg <dbl>, Selenium_µg <dbl>, Vit_C_mg <dbl>,
## #   Thiamin_mg <dbl>, Riboflavin_mg <dbl>, Niacin_mg <dbl>,
## #   Panto_Acid_mg <dbl>, Vit_B6_mg <dbl>, Energ_Kcal <dbl>,
## #   Shrt_Desc <chr>, NDB_No <chr>, score <dbl>, scaled_score <dbl>
```
…
```
## Calorie compliantCalcium_mgc("Lipid_Tot_g", "Sodium_mg", "Cholestrl_mg", "FA_Sat_g")
```

```
## Uncomplinat here: Not Compliant
```

```
## Time out; returning menu as is
```

```
## # A tibble: 27 x 30
##        shorter_desc solution_amounts   GmWt_1 serving_gmwt     cost
##               <chr>            <dbl>    <dbl>        <dbl>    <dbl>
##  1          COOKIES                1  28.3500        28.35  4.92000
##  2          KEEBLER                1  30.0000        30.00  8.65000
##  3         BABYFOOD                1  28.3500        28.35  9.30000
##  4          CATFISH                1  87.0000        87.00  5.07000
##  5             BEEF                1  85.0000        85.00  9.88000
##  6          CHICORY                1  53.0000        53.00  2.63000
##  7          PEACHES                1 430.9107       160.00 19.25632
##  8 CAMPBELL'S CHNKY                1 245.0000       245.00  8.21000
##  9             BEEF                1  85.0000        85.00  8.04000
## 10         BABYFOOD                1 163.0000       163.00  3.12000
## # ... with 17 more rows, and 25 more variables: Lipid_Tot_g <dbl>,
## #   Sodium_mg <dbl>, Cholestrl_mg <dbl>, FA_Sat_g <dbl>, Protein_g <dbl>,
## #   Calcium_mg <dbl>, Iron_mg <dbl>, Magnesium_mg <dbl>,
## #   Phosphorus_mg <dbl>, Potassium_mg <dbl>, Zinc_mg <dbl>,
## #   Copper_mg <dbl>, Manganese_mg <dbl>, Selenium_µg <dbl>,
## #   Vit_C_mg <dbl>, Thiamin_mg <dbl>, Riboflavin_mg <dbl>,
## #   Niacin_mg <dbl>, Panto_Acid_mg <dbl>, Vit_B6_mg <dbl>,
## #   Energ_Kcal <dbl>, Shrt_Desc <chr>, NDB_No <chr>, score <dbl>,
## #   scaled_score <dbl>
```
…
```
## Optimal solution found :)
```

```
##  [1] 1 0 1 1 1 0 1 1 1 0
```


```r
simulate_spectrum()
```

```
## # A tibble: 22 x 2
##    min_amount status
##         <dbl>  <int>
##  1       -1.0      0
##  2       -1.0      0
##  3       -0.8      0
##  4       -0.8      0
##  5       -0.6      1
##  6       -0.6      0
##  7       -0.4      0
##  8       -0.4      0
##  9       -0.2      0
## 10       -0.2      0
## # ... with 12 more rows
```
…
